{"docs": [{"id": 5517094, "name": "\u0411\u0443\u0434\u0443\u0449\u0435\u0435", "alternativeName": null, "enName": null, "type": "movie", "typeNumber": 1, "year": 2023, "description": "\u0421\u0443\u0449\u0435\u0441\u0442\u0432\u0443\u0435\u0442 \u043b\u0438\u00a0\u043d\u0430\u0443\u0447\u043d\u043e \u043e\u0431\u043e\u0441\u043d\u043e\u0432\u0430\u043d\u043d\u044b\u0439 \u043c\u0435\u0442\u043e\u0434 \u043f\u0440\u043e\u0433\u043d\u043e\u0437\u0438\u0440\u043e\u0432\u0430\u043d\u0438\u044f \u0434\u0430\u043b\u0451\u043a\u043e\u0433\u043e \u0431\u0443\u0434\u0443\u0449\u0435\u0433\u043e? \u0418\u00a0\u0436\u0438\u0432\u0451\u043c \u043b\u0438\u00a0\u043c\u044b \u0432\u00a0\u043c\u0438\u0440\u0435, \u043a\u043e\u0442\u043e\u0440\u044b\u0439 \u0431\u044b\u043b\u00a0\u00ab\u0440\u0430\u0441\u0441\u0447\u0438\u0442\u0430\u043d\u00bb \u043f\u0440\u0435\u0434\u0441\u043a\u0430\u0437\u0430\u0442\u0435\u043b\u044f\u043c\u0438 \u043f\u0440\u043e\u0448\u043b\u043e\u0433\u043e? \u0412\u00a0\u0444\u0438\u043b\u044c\u043c\u0435 \u043f\u0440\u0438\u043d\u044f\u043b\u0438 \u0443\u0447\u0430\u0441\u0442\u0438\u0435 \u0444\u0443\u0442\u0443\u0440\u043e\u043b\u043e\u0433\u0438 \u0438\u00a0\u043f\u0440\u043e\u0433\u043d\u043e\u0437\u0438\u0441\u0442\u044b, \u0430\u00a0\u0442\u0430\u043a\u0436\u0435 \u0441\u043f\u0435\u0446\u0438\u0430\u043b\u0438\u0441\u0442\u044b \u0438\u0437\u00a0\u0441\u0430\u043c\u044b\u0445 \u0440\u0430\u0437\u043d\u044b\u0445 \u043e\u0431\u043b\u0430\u0441\u0442\u0435\u0439 \u0434\u0435\u044f\u0442\u0435\u043b\u044c\u043d\u043e\u0441\u0442\u0438. \u0424\u0438\u043b\u043e\u0441\u043e\u0444, \u043f\u0438\u0441\u0430\u0442\u0435\u043b\u044c-\u0444\u0430\u043d\u0442\u0430\u0441\u0442, \u0443\u0447\u0451\u043d\u044b\u0439, \u0438\u043d\u043d\u043e\u0432\u0430\u0446\u0438\u043e\u043d\u043d\u044b\u0439 \u043f\u0440\u0435\u0434\u043f\u0440\u0438\u043d\u0438\u043c\u0430\u0442\u0435\u043b\u044c \u0438\u00a0\u0441\u043f\u0435\u0446\u0438\u0430\u043b\u0438\u0441\u0442 \u043f\u043e\u00a0\u0433\u0440\u0430\u0434\u043e\u0441\u0442\u0440\u043e\u0438\u0442\u0435\u043b\u044c\u0441\u0442\u0432\u0443\u00a0\u2014\u00a0\u043a\u0430\u0436\u0434\u044b\u0439 \u0438\u0437\u00a0\u0433\u0435\u0440\u043e\u0435\u0432 \u043f\u043e\u0434\u0435\u043b\u0438\u043b\u0441\u044f \u0441\u0432\u043e\u0438\u043c \u0443\u043d\u0438\u043a\u0430\u043b\u044c\u043d\u044b\u043c \u0432\u0438\u0434\u0435\u043d\u0438\u0435\u043c \u0431\u0443\u0434\u0443\u0449\u0435\u0433\u043e.", "shortDescription": null, "status": null, "rating": {"kp": 0, "imdb": 0, "filmCritics": 0, "russianFilmCritics": 0, "await": 0}, "votes": {"kp": 1, "imdb": 0, "filmCritics": 0, "russianFilmCritics": 0, "await": 0}, "movieLength": null, "totalSeriesLength": null, "seriesLength": null, "ratingMpaa": null, "ageRating": 18, "poster": {"url": "https://image.openmoviedb.com/kinopoisk-images/10592371/6e3b7b28-64af-4b1d-94b5-ff2683b29d95/orig", "previewUrl": "https://image.openmoviedb.com/kinopoisk-images/10592371/6e3b7b28-64af-4b1d-94b5-ff2683b29d95/x1000"}, "backdrop": {"url": "https://image.openmoviedb.com/kinopoisk-ott-images/1648503/2a0000018f3e05aa62b9214087d76c72b244/orig", "previewUrl": "https://image.openmoviedb.com/kinopoisk-ott-images/1648503/2a0000018f3e05aa62b9214087d76c72b244/x1000"}, "genres": [{"name": "\u0434\u043e\u043a\u0443\u043c\u0435\u043d\u0442\u0430\u043b\u044c\u043d\u044b\u0439"}], "countries": [{"name": "\u0420\u043e\u0441\u0441\u0438\u044f"}], "top10": null, "top250": null, "isSeries": false, "ticketsOnSale": false}, {"id": 5515196, "name": "\u0424\u0440\u0430\u043d\u0446\u0443\u0437\u0441\u043a\u0430\u044f \u0440\u0443\u043b\u0435\u0442\u043a\u0430", "alternativeName": "Tout pour Agn\u00e8s", "type": "tv-series", "typeNumber": 2, "year": 2023, "description": "1970-\u0435. \u0412\u00a0\u041d\u0438\u0446\u0446\u0435 \u0431\u0435\u0441\u0441\u043b\u0435\u0434\u043d\u043e \u0438\u0441\u0447\u0435\u0437\u0430\u0435\u0442 \u043c\u043e\u043b\u043e\u0434\u0430\u044f \u0438\u00a0\u0431\u043e\u0433\u0430\u0442\u0430\u044f \u0410\u043d\u044c\u0435\u0441 \u041b\u0435\u00a0\u0420\u0443. \u041c\u0430\u0442\u044c \u043d\u0430\u0447\u0438\u043d\u0430\u0435\u0442 \u043f\u043e\u0438\u0441\u043a\u0438 \u0438\u00a0\u043f\u043e\u0434\u043e\u0437\u0440\u0435\u0432\u0430\u0435\u0442, \u0447\u0442\u043e\u00a0\u043a \u0438\u0441\u0447\u0435\u0437\u043d\u043e\u0432\u0435\u043d\u0438\u044e \u043f\u0440\u0438\u0447\u0430\u0441\u0442\u0435\u043d \u043b\u044e\u0431\u043e\u0432\u043d\u0438\u043a \u0434\u043e\u0447\u0435\u0440\u0438, \u043a\u043e\u0442\u043e\u0440\u044b\u0439 \u0441\u0442\u0440\u0435\u043c\u0438\u0442\u0441\u044f \u0437\u0430\u0432\u043b\u0430\u0434\u0435\u0442\u044c \u0435\u0451 \u0441\u043e\u0441\u0442\u043e\u044f\u043d\u0438\u0435\u043c.", "shortDescription": "\u0425\u043e\u0437\u044f\u0439\u043a\u0430 \u043a\u0430\u0437\u0438\u043d\u043e \u043f\u043e\u0434\u043e\u0437\u0440\u0435\u0432\u0430\u0435\u0442 \u0430\u0434\u0432\u043e\u043a\u0430\u0442\u0430 \u0432 \u043f\u043e\u0445\u0438\u0449\u0435\u043d\u0438\u0438 \u0434\u043e\u0447\u0435\u0440\u0438. \u041c\u0438\u0448\u0435\u043b\u044c \u041b\u0430\u0440\u043e\u043a \u0432 \u0434\u0435\u0442\u0435\u043a\u0442\u0438\u0432\u043d\u043e\u043c \u0441\u0435\u0440\u0438\u0430\u043b\u0435 \u0441 \u0430\u0442\u043c\u043e\u0441\u0444\u0435\u0440\u043e\u0439 1970-\u0445", "status": "completed", "rating": {"kp": 0, "imdb": 7, "filmCritics": 0, "russianFilmCritics": 0, "await": 0}, "votes": {"kp": 25, "imdb": 39, "filmCritics": 0, "russianFilmCritics": 0, "await": 0}, "movieLength": null, "totalSeriesLength": 208, "seriesLength": 52, "ratingMpaa": null, "ageRating": 18, "poster": {"url": "https://image.openmoviedb.com/kinopoisk-images/10768063/bd91d67f-d2ca-4d89-82dd-2aab6858db52/orig", "previewUrl": "https://image.openmoviedb.com/kinopoisk-images/10768063/bd91d67f-d2ca-4d89-82dd-2aab6858db52/x1000"}, "backdrop": {"url": "https://image.openmoviedb.com/kinopoisk-ott-images/200035/2a0000018f1ac13450030e25a7227664d54d/orig", "previewUrl": "https://image.openmoviedb.com/kinopoisk-ott-images/200035/2a0000018f1ac13450030e25a7227664d54d/x1000"}, "genres": [{"name": "\u0434\u0440\u0430\u043c\u0430"}, {"name": "\u0434\u0435\u0442\u0435\u043a\u0442\u0438\u0432"}, {"name": "\u043a\u0440\u0438\u043c\u0438\u043d\u0430\u043b"}], "countries": [{"name": "\u0424\u0440\u0430\u043d\u0446\u0438\u044f"}], "releaseYears": [{"start": 2023, "end": 2023}], "top10": null, "top250": null, "isSeries": true, "ticketsOnSale": false}, {"id": 5507136, "name": "\u041c\u0443\u043b\u044c\u0442 \u0432 \u043a\u0438\u043d\u043e. \u0412\u044b\u043f\u0443\u0441\u043a \u2116168. \u0418\u0434\u0435\u043c \u043d\u0430 \u043f\u0438\u043a\u043d\u0438\u043a", "alternativeName": null, "enName": null, "type": "cartoon", "typeNumber": 3, "year": 2024, "description": "\u0412\u0435\u0441\u043d\u0430 \u0432\u00a0\u0441\u0430\u043c\u043e\u043c \u0440\u0430\u0437\u0433\u0430\u0440\u0435, \u0441\u043e\u043b\u043d\u044b\u0448\u043a\u043e \u043f\u0440\u0438\u0433\u0440\u0435\u0432\u0430\u0435\u0442, \u043f\u043e\u0447\u043a\u0438 \u0440\u0430\u0441\u043f\u0443\u0441\u043a\u0430\u044e\u0442\u0441\u044f, \u0430\u00a0\u0420\u043e\u0441\u0438\u043d\u043a\u0430, \u0423\u043c\u044b\u0447 \u0438\u00a0\u041d\u0435\u043f\u043e\u0441\u0435\u0434\u0443\u0441 \u0441\u043e\u0431\u0440\u0430\u043b\u0438\u0441\u044c \u043d\u0430\u00a0\u043f\u0440\u0438\u0440\u043e\u0434\u0443, \u0447\u0442\u043e\u0431\u044b \u0443\u0441\u0442\u0440\u043e\u0438\u0442\u044c \u043f\u0438\u043a\u043d\u0438\u043a. \u0422\u043e\u043b\u044c\u043a\u043e \u0440\u0435\u0431\u044f\u0442\u0430 \u0440\u0435\u0448\u0438\u043b\u0438 \u0445\u043e\u0440\u043e\u0448\u0435\u043d\u044c\u043a\u043e \u043f\u043e\u0432\u0435\u0441\u0435\u043b\u0438\u0442\u044c\u0441\u044f, \u043a\u0430\u043a\u00a0\u043d\u0430 \u041d\u0435\u043f\u043e\u0441\u0435\u0434\u0443\u0441\u0430 \u043d\u0430\u043f\u0430\u043b\u0430 \u0437\u043c\u0435\u044f!", "shortDescription": null, "status": null, "rating": {"kp": 0, "imdb": 0, "filmCritics": 0, "russianFilmCritics": 0, "await": 0}, "votes": {"kp": 33, "imdb": 0, "filmCritics": 0, "russianFilmCritics": 0, "await": 12}, "movieLength": 45, "totalSeriesLength": null, "seriesLength": null, "ratingMpaa": null, "ageRating": 0, "poster": {"url": "https://image.openmoviedb.com/kinopoisk-images/10812607/5e8ef43b-11c8-439c-90a1-79a04649c59a/orig", "previewUrl": "https://image.openmoviedb.com/kinopoisk-images/10812607/5e8ef43b-11c8-439c-90a1-79a04649c59a/x1000"}, "genres": [{"name": "\u0434\u0435\u0442\u0441\u043a\u0438\u0439"}, {"name": "\u043c\u0443\u043b\u044c\u0442\u0444\u0438\u043b\u044c\u043c"}], "countries": [{"name": "\u0420\u043e\u0441\u0441\u0438\u044f"}], "top10": null, "top250": null, "isSeries": false, "ticketsOnSale": true}, {"id": 5515271, "name": "\u0421\u043b\u0430\u0431\u0435\u0439\u0448\u0430\u044f \u0443\u043a\u0440\u043e\u0442\u0438\u0442\u0435\u043b\u044c\u043d\u0438\u0446\u0430 \u0432 \u043f\u0443\u0442\u0435\u0448\u0435\u0441\u0442\u0432\u0438\u0438 \u043f\u043e \u0441\u0431\u043e\u0440\u0443 \u043f\u0438\u0442\u043e\u043c\u0446\u0435\u0432", "alternativeName": "Saijaku Tamer wa Gomi Hiroi no Tabi wo Hajimemashita.", "type": "anime", "typeNumber": 4, "year": 2024, "description": "\u042e\u043d\u0430\u044f \u0410\u0439\u0432\u0438 \u043f\u0435\u0440\u0435\u0440\u043e\u0436\u0434\u0430\u0435\u0442\u0441\u044f \u0432\u00a0\u043d\u043e\u0432\u043e\u043c \u043c\u0438\u0440\u0435 \u0438\u00a0\u0441\u0442\u0430\u043d\u043e\u0432\u0438\u0442\u0441\u044f \u043e\u0431\u043b\u0430\u0434\u0430\u0442\u0435\u043b\u0435\u043c \u043d\u0430\u0432\u044b\u043a\u0430 \u0443\u043a\u0440\u043e\u0442\u0438\u0442\u0435\u043b\u044c\u043d\u0438\u0446\u044b, \u043d\u043e\u00a0\u0441\u0430\u043c\u043e\u0433\u043e \u043d\u0438\u0437\u0448\u0435\u0433\u043e \u043a\u043b\u0430\u0441\u0441\u0430. \u0420\u043e\u0434\u0438\u0442\u0435\u043b\u0438 \u043d\u0435\u00a0\u0445\u043e\u0442\u044f\u0442 \u0438\u043c\u0435\u0442\u044c \u0441\u00a0\u043d\u0435\u0439 \u043d\u0438\u0447\u0435\u0433\u043e \u043e\u0431\u0449\u0435\u0433\u043e, \u0430\u00a0\u043c\u0435\u0441\u0442\u043d\u044b\u0435 \u0436\u0438\u0442\u0435\u043b\u0438 \u0438\u0437\u0433\u043e\u043d\u044f\u044e\u0442 \u0434\u0435\u0432\u043e\u0447\u043a\u0443 \u0438\u0437\u00a0\u0434\u0435\u0440\u0435\u0432\u043d\u0438. \u041f\u044b\u0442\u0430\u044f\u0441\u044c \u0432\u044b\u0436\u0438\u0442\u044c, \u043e\u043d\u0430\u00a0\u0441\u043e\u0431\u0438\u0440\u0430\u0435\u0442 \u0440\u0430\u0437\u043b\u0438\u0447\u043d\u044b\u0439 \u043c\u0443\u0441\u043e\u0440 \u0438\u00a0\u043d\u0430\u0445\u043e\u0434\u0438\u0442 \u0441\u043b\u0430\u0431\u043e\u0433\u043e \u0441\u043b\u0438\u0437\u043d\u044f\u043a\u0430 \u0421\u043e\u0440\u0443, \u043a\u043e\u0442\u043e\u0440\u043e\u0433\u043e \u043a\u00a0\u0441\u043e\u0431\u0441\u0442\u0432\u0435\u043d\u043d\u043e\u043c\u0443 \u0443\u0434\u0438\u0432\u043b\u0435\u043d\u0438\u044e \u0443\u043a\u0440\u043e\u0449\u0430\u0435\u0442. \u0412\u043c\u0435\u0441\u0442\u0435 \u043e\u043d\u0438\u00a0\u043e\u0442\u043f\u0440\u0430\u0432\u043b\u044f\u044e\u0442\u0441\u044f \u0432\u00a0\u0434\u043e\u043b\u0433\u043e\u0435 \u043f\u0443\u0442\u0435\u0448\u0435\u0441\u0442\u0432\u0438\u0435.", "shortDescription": null, "status": "completed", "rating": {"kp": 0, "imdb": 7, "filmCritics": 0, "russianFilmCritics": 0, "await": 0}, "votes": {"kp": 30, "imdb": 434, "filmCritics": 0, "russianFilmCritics": 0, "await": 0}, "movieLength": null, "totalSeriesLength": 288, "seriesLength": 23, "ratingMpaa": null, "ageRating": null, "poster": {"url": "https://image.openmoviedb.com/kinopoisk-images/10835644/faa33089-598d-4d71-b8f3-ef617facc1e5/orig", "previewUrl": "https://image.openmoviedb.com/kinopoisk-images/10835644/faa33089-598d-4d71-b8f3-ef617facc1e5/x1000"}, "genres": [{"name": "\u0430\u043d\u0438\u043c\u0435"}, {"name": "\u043c\u0443\u043b\u044c\u0442\u0444\u0438\u043b\u044c\u043c"}, {"name": "\u0444\u044d\u043d\u0442\u0435\u0437\u0438"}, {"name": "\u043f\u0440\u0438\u043a\u043b\u044e\u0447\u0435\u043d\u0438\u044f"}], "countries": [{"name": "\u042f\u043f\u043e\u043d\u0438\u044f"}], "releaseYears": [{"start": 2024, "end": 2024}], "top10": null, "top250": null, "isSeries": true, "ticketsOnSale": false}, {"id": 5508698, "name": "\u041f\u0440\u043e\u043a\u043b\u044f\u0442\u044b\u0435", "alternativeName": "Cursed", "enName": null, "type": "movie", "typeNumber": 1, "year": 2023, "description": "\u0410\u043c\u0430\u0439\u044f, \u041b\u0438\u0434\u0438\u044f, \u0410\u0440\u0433\u0438, \u0411\u0435\u0430\u0442\u0440\u0438\u0441, \u0415\u043b\u0435\u043d\u0430 \u0438\u00a0\u041c\u0430\u0440\u0442\u0430 \u043e\u0442\u043d\u043e\u0441\u044f\u0442\u0441\u044f \u043a\u00a0\u0440\u0430\u0437\u043d\u044b\u043c \u0441\u043e\u0446\u0438\u0430\u043b\u044c\u043d\u044b\u043c \u0441\u043b\u043e\u044f\u043c, \u043e\u0434\u043d\u0430\u043a\u043e \u0441\u0432\u044f\u0437\u0430\u043d\u044b \u0434\u0440\u0443\u0433 \u0441\u00a0\u0434\u0440\u0443\u0433\u043e\u043c \u043a\u0443\u043a\u043b\u043e\u0439 \u041c\u043e\u043b\u043b\u0438, \u043a\u043e\u0442\u043e\u0440\u0430\u044f \u043f\u043e\u044f\u0432\u0438\u043b\u0430\u0441\u044c \u0432\u00a0\u0434\u0430\u043b\u0451\u043a\u043e\u043c 1976 \u0433\u043e\u0434\u0443. \u0415\u0451 \u043d\u0430\u0448\u043b\u0438 \u043d\u0430\u00a0\u043f\u0435\u043f\u0435\u043b\u0438\u0449\u0435 \u043f\u043e\u0441\u043b\u0435 \u0431\u043e\u043b\u044c\u0448\u043e\u0433\u043e \u043f\u043e\u0436\u0430\u0440\u0430 \u0432\u00a0\u0434\u0435\u0442\u0441\u043a\u043e\u043c \u0434\u043e\u043c\u0435 \u0421\u0430\u043d-\u0425\u0443\u0430\u043d.", "shortDescription": null, "status": null, "rating": {"kp": 0, "imdb": 7, "filmCritics": 0, "russianFilmCritics": 0, "await": 0}, "votes": {"kp": 12, "imdb": 5, "filmCritics": 0, "russianFilmCritics": 0, "await": 0}, "movieLength": 60, "totalSeriesLength": null, "seriesLength": null, "ratingMpaa": null, "ageRating": null, "poster": {"url": "https://image.openmoviedb.com/kinopoisk-images/10893610/f53f9705-991b-47a6-8a72-2034129caa66/orig", "previewUrl": "https://image.openmoviedb.com/kinopoisk-images/10893610/f53f9705-991b-47a6-8a72-2034129caa66/x1000"}, "genres": [{"name": "\u0443\u0436\u0430\u0441\u044b"}, {"name": "\u0444\u0430\u043d\u0442\u0430\u0441\u0442\u0438\u043a\u0430"}, {"name": "\u0431\u043e\u0435\u0432\u0438\u043a"}, {"name": "\u0434\u0440\u0430\u043c\u0430"}], "countries": [{"name": "\u0418\u0441\u043f\u0430\u043d\u0438\u044f"}], "top10": null, "top250": null, "isSeries": false, "ticketsOnSale": false}, {"id": 5511684, "name": null, "alternativeName": "Wallbanger", "enName": null, "type": "movie", "typeNumber": 1, "year": 2024, "description": null, "shortDescription": null, "status": null, "rating": {"kp": 0, "imdb": 7.5, "filmCritics": 0, "russianFilmCritics": 0, "await": 0}, "votes": {"kp": 31, "imdb": 86, "filmCritics": 0, "russianFilmCritics": 0, "await": 0}, "movieLength": 118, "totalSeriesLength": null, "seriesLength": null, "ratingMpaa": null, "ageRating": null, "poster": {"url": "https://image.openmoviedb.com/kinopoisk-images/9784475/c2c48509-9dbc-4b57-a286-12b332a791ce/orig", "previewUrl": "https://image.openmoviedb.com/kinopoisk-images/9784475/c2c48509-9dbc-4b57-a286-12b332a791ce/x1000"}, "genres": [{"name": "\u043c\u0435\u043b\u043e\u0434\u0440\u0430\u043c\u0430"}, {"name": "\u043a\u043e\u043c\u0435\u0434\u0438\u044f"}], "countries": [{"name": "\u0421\u0428\u0410"}], "top10": null, "top250": null, "isSeries": false, "ticketsOnSale": false}, {"id": 5515073, "name": "\u0418\u0440\u0436\u0438 \u041a\u0438\u043b\u0438\u0430\u043d: \u0418\u0440\u043e\u043d\u0438\u0447\u043d\u044b\u0435 \u0442\u0430\u043d\u0446\u044b", "alternativeName": "Ji\u0159\u00ed Kyli\u00e1n: Ironic Dances", "enName": null, "type": "movie", "typeNumber": 1, "year": 2006, "description": "\u0422\u0440\u0438 \u0440\u0430\u0431\u043e\u0442\u044b \u0445\u043e\u0440\u0435\u043e\u0433\u0440\u0430\u0444\u0430 \u0418\u0440\u0436\u0438 \u041a\u0438\u043b\u0438\u0430\u043d\u0430: \u0431\u0430\u043b\u0435\u0442 \u00ab\u0428\u0435\u0441\u0442\u044c \u0442\u0430\u043d\u0446\u0435\u0432\u00bb, \u043a\u043e\u0440\u043e\u0442\u043a\u043e\u043c\u0435\u0442\u0440\u0430\u0436\u043d\u044b\u0439 \u0444\u0438\u043b\u044c\u043c-\u0442\u0430\u043d\u0435\u0446 \u00ab\u041a\u0430\u0440\u041c\u0435\u043d\u00bb \u0438\u00a0\u0441\u043f\u0435\u043a\u0442\u0430\u043a\u043b\u044c \u00ab\u0414\u0435\u043d\u044c \u0440\u043e\u0436\u0434\u0435\u043d\u0438\u044f\u00bb.", "shortDescription": null, "status": null, "rating": {"kp": 0, "imdb": 0, "filmCritics": 0, "russianFilmCritics": 0, "await": 0}, "votes": {"kp": 2, "imdb": 0, "filmCritics": 0, "russianFilmCritics": 0, "await": 0}, "movieLength": 77, "totalSeriesLength": null, "seriesLength": null, "ratingMpaa": null, "ageRating": 18, "poster": {"url": "https://image.openmoviedb.com/kinopoisk-images/4486454/698414e9-8e2b-4fa2-8476-3b8df504c342/orig", "previewUrl": "https://image.openmoviedb.com/kinopoisk-images/4486454/698414e9-8e2b-4fa2-8476-3b8df504c342/x1000"}, "genres": [{"name": "\u043c\u0443\u0437\u044b\u043a\u0430"}], "countries": [{"name": "\u041d\u0438\u0434\u0435\u0440\u043b\u0430\u043d\u0434\u044b"}], "top10": null, "top250": null, "isSeries": false, "ticketsOnSale": false}, {"id": 5509288, "name": "\u041e\u0434\u043d\u0430 \u043d\u043e\u0447\u044c", "alternativeName": null, "enName": null, "type": "movie", "typeNumber": 1, "year": 2023, "description": null, "shortDescription": null, "status": null, "rating": {"kp": 0, "imdb": 0, "filmCritics": 0, "russianFilmCritics": 0, "await": 0}, "votes": {"kp": 5, "imdb": 0, "filmCritics": 0, "russianFilmCritics": 0, "await": 0}, "movieLength": null, "totalSeriesLength": null, "seriesLength": null, "ratingMpaa": null, "ageRating": null, "genres": [{"name": "\u043c\u0435\u043b\u043e\u0434\u0440\u0430\u043c\u0430"}], "countries": [{"name": "\u0420\u043e\u0441\u0441\u0438\u044f"}], "top10": null, "top250": null, "isSeries": false, "ticketsOnSale": false}, {"id": 5506712, "name": "\u0411\u0435\u0437 \u043f\u0430\u043d\u0438\u043a\u0438!", "alternativeName": "Nic na sile", "enName": null, "type": "movie", "typeNumber": 1, "year": 2024, "description": null, "shortDescription": null, "status": null, "rating": {"kp": 0, "imdb": 5.1, "filmCritics": 0, "russianFilmCritics": 0, "await": 0}, "votes": {"kp": 9, "imdb": 691, "filmCritics": 0, "russianFilmCritics": 0, "await": 0}, "movieLength": 111, "totalSeriesLength": null, "seriesLength": null, "ratingMpaa": null, "ageRating": null, "genres": [{"name": "\u043c\u0435\u043b\u043e\u0434\u0440\u0430\u043c\u0430"}, {"name": "\u043a\u043e\u043c\u0435\u0434\u0438\u044f"}], "countries": [{"name": "\u041f\u043e\u043b\u044c\u0448\u0430"}], "top10": null, "top250": null, "isSeries": false, "ticketsOnSale": false}, {"id": 5511689, "name": "\u0412\u0438\u0448\u0435\u043d\u043a\u0430 \u043d\u0430 \u0442\u043e\u0440\u0442\u0435", "alternativeName": null, "enName": null, "type": "movie", "typeNumber": 1, "year": 2024, "description": "\u0410\u043d\u043d\u0430 \u0433\u043e\u0442\u043e\u0432\u0438\u0442\u0441\u044f \u043a\u00a0\u0441\u0432\u0430\u0434\u044c\u0431\u0435. \u0416\u0435\u043d\u0438\u0445\u00a0\u2014\u00a0\u0447\u0435\u043b\u043e\u0432\u0435\u043a \u043f\u043e\u043b\u043e\u0436\u0438\u0442\u0435\u043b\u044c\u043d\u044b\u0439, \u043e\u0431\u0435\u0441\u043f\u0435\u0447\u0435\u043d\u043d\u044b\u0439, \u043f\u0440\u0430\u0432\u0434\u0430, \u043d\u0435\u043c\u043d\u043e\u0433\u043e \u0437\u0430\u043d\u0443\u0434\u0430, \u043d\u043e\u00a0\u0440\u0430\u0437\u0432\u0435 \u044d\u0442\u043e\u00a0\u0431\u043e\u043b\u044c\u0448\u0430\u044f \u043f\u0440\u043e\u0431\u043b\u0435\u043c\u0430? \u041e\u0434\u043d\u0430\u0436\u0434\u044b \u0410\u043d\u043d\u0435 \u0437\u0432\u043e\u043d\u0438\u0442 \u0431\u044b\u0432\u0448\u0430\u044f \u0441\u0432\u0435\u043a\u0440\u043e\u0432\u044c: \u0435\u0451 \u0441\u044b\u043d\u00a0\u0432\u043d\u0435\u0437\u0430\u043f\u043d\u043e \u0443\u0435\u0445\u0430\u043b, \u043d\u0438\u0447\u0435\u0433\u043e \u043d\u0435\u00a0\u043e\u0431\u044a\u044f\u0441\u043d\u0438\u0432. \u0418\u00a0\u043e\u043d\u0430 \u0443\u0432\u0435\u0440\u0435\u043d\u0430, \u0447\u0442\u043e\u00a0\u0437\u0430 \u0435\u0451 \u043a\u0432\u0430\u0440\u0442\u0438\u0440\u043e\u0439 \u0441\u043b\u0435\u0434\u044f\u0442. \u041e\u043d\u0430\u00a0\u0431\u043e\u0438\u0442\u0441\u044f \u0432\u044b\u0439\u0442\u0438 \u0434\u0430\u0436\u0435 \u0437\u0430\u00a0\u043f\u0440\u043e\u0434\u0443\u043a\u0442\u0430\u043c\u0438\u2026", "shortDescription": null, "status": null, "rating": {"kp": 0, "imdb": 0, "filmCritics": 0, "russianFilmCritics": 0, "await": 0}, "votes": {"kp": 13, "imdb": 0, "filmCritics": 0, "russianFilmCritics": 0, "await": 0}, "movieLength": null, "totalSeriesLength": null, "seriesLength": null, "ratingMpaa": null, "ageRating": null, "countries": [{"name": "\u0420\u043e\u0441\u0441\u0438\u044f"}], "top10": null, "top250": null, "isSeries": false, "ticketsOnSale": false}], "total": 1056269, "limit": 10, "page": 1, "pages": 105627}